module main

go 1.20

require (
	github.com/fasthttp/router v1.4.18
	github.com/joho/godotenv v1.5.1
	github.com/lib/pq v1.10.7
	github.com/streadway/amqp v1.0.0
	github.com/valyala/fasthttp v1.45.0
)

require (
	github.com/andybalholm/brotli v1.0.5 // indirect
	github.com/klauspost/compress v1.16.3 // indirect
	github.com/savsgio/gotils v0.0.0-20230208104028-c358bd845dee // indirect
	github.com/valyala/bytebufferpool v1.0.0 // indirect
)
